{
    "81EM": {
	"name": "81EM",
	"side": 1,
	"module": 0,
	"status": 1,
	"x": 0,
	"y": 0,
	"z": 0
    },
    "81H1": {
	"name": "81H1",
	"side": 1,
	"module": 1,
	"status": 1,
	"x": 0,
	"y": 0,
	"z": 160.0
    },
    "81H2": {
	"name": "81H2",
	"side": 1,
	"module": 2,
	"status": 1,
	"x": 0,
	"y": 0,
	"z": 320.0
    },
    "81H3": {
	"name": "81H3",
	"side": 1,
	"module": 3,
	"status": 1,
	"x": 0,
	"y": 0,
	"z": 480.1
    },
    "12EM": {
	"name": "12EM",
	"side": -1,
	"module": 0,
	"status": 1,
	"x": 0,
	"y": 0,
	"z": 0
    },
    "12H1": {
	"name": "12H1",
	"side": -1,
	"module": 1,
	"status": 1,
	"x": 0,
	"y": 0,
	"z": 160.0
    },
    "12H2": {
	"name": "12H2",
	"side": -1,
	"module": 2,
	"status": 1,
	"x": 0,
	"y": 0,
	"z": 320.0
    },
    "12H3": {
	"name": "12H3",
	"side": -1,
	"module": 3,
	"status": 1,
	"x": 0,
	"y": 0,
	"z": 480.1
    }

}
